EESchema Schematic File Version 4
EELAYER 30 0
EELAYER END
$Descr A4 11693 8268
encoding utf-8
Sheet 1 1
Title ""
Date ""
Rev ""
Comp ""
Comment1 ""
Comment2 ""
Comment3 ""
Comment4 ""
$EndDescr
$Comp
L Device:R R2
U 1 1 5E602DE9
P 3900 2800
F 0 "R2" V 3800 2750 50  0000 L CNN
F 1 "10K" V 4000 2700 50  0000 L CNN
F 2 "Resistor_SMD:R_0805_2012Metric" V 3830 2800 50  0001 C CNN
F 3 "~" H 3900 2800 50  0001 C CNN
	1    3900 2800
	0    1    1    0   
$EndComp
Text GLabel 5100 2250 1    50   Input ~ 0
V_3.3
Wire Wire Line
	5100 2250 5100 2300
Wire Wire Line
	5100 2300 4850 2300
$Comp
L power:GND #PWR0103
U 1 1 5E608B53
P 4850 3950
F 0 "#PWR0103" H 4850 3700 50  0001 C CNN
F 1 "GND" H 4855 3777 50  0000 C CNN
F 2 "" H 4850 3950 50  0001 C CNN
F 3 "" H 4850 3950 50  0001 C CNN
	1    4850 3950
	1    0    0    -1  
$EndComp
Text GLabel 3600 2800 0    50   Input ~ 0
V_3.3
Wire Wire Line
	4250 2500 4150 2500
Text GLabel 3600 2500 0    50   Input ~ 0
V_3.3
Wire Wire Line
	3750 2500 3600 2500
Connection ~ 4150 2500
Wire Wire Line
	4150 2500 4050 2500
$Comp
L power:GND #PWR0104
U 1 1 5E60E516
P 4150 2100
F 0 "#PWR0104" H 4150 1850 50  0001 C CNN
F 1 "GND" H 4155 1927 50  0000 C CNN
F 2 "" H 4150 2100 50  0001 C CNN
F 3 "" H 4150 2100 50  0001 C CNN
	1    4150 2100
	-1   0    0    1   
$EndComp
$Comp
L Device:R R3
U 1 1 5E6113F6
P 6100 2500
F 0 "R3" V 6200 2450 50  0000 L CNN
F 1 "10K" V 6000 2450 50  0000 L CNN
F 2 "Resistor_SMD:R_0805_2012Metric" V 6030 2500 50  0001 C CNN
F 3 "~" H 6100 2500 50  0001 C CNN
	1    6100 2500
	0    -1   -1   0   
$EndComp
Text GLabel 6500 2500 2    50   Input ~ 0
V_3.3
$Comp
L power:GND #PWR0106
U 1 1 5E611405
P 5750 1600
F 0 "#PWR0106" H 5750 1350 50  0001 C CNN
F 1 "GND" H 5755 1427 50  0000 C CNN
F 2 "" H 5750 1600 50  0001 C CNN
F 3 "" H 5750 1600 50  0001 C CNN
	1    5750 1600
	-1   0    0    1   
$EndComp
Wire Wire Line
	5750 1700 5750 1600
Text GLabel 5450 2600 2    50   Input ~ 0
TX
$Comp
L RF_Module:ESP-12E U1
U 1 1 5E5FB366
P 4850 3100
F 0 "U1" H 4850 4081 50  0000 C CNN
F 1 "ESP-12E" H 4850 3990 50  0000 C CNN
F 2 "MK1:ESP-12E_NO_BOTTOM_PIN" H 4850 3100 50  0001 C CNN
F 3 "http://wiki.ai-thinker.com/_media/esp8266/esp8266_series_modules_user_manual_v1.1.pdf" H 4500 3200 50  0001 C CNN
	1    4850 3100
	1    0    0    -1  
$EndComp
Text GLabel 5450 2800 2    50   Input ~ 0
RX
Text GLabel 5450 2900 2    50   Input ~ 0
SDA
Text GLabel 5450 3000 2    50   Input ~ 0
SCL
$Comp
L Connector:Conn_01x03_Female J_PROGRAM1
U 1 1 5E60AB33
P 1450 3150
F 0 "J_PROGRAM1" H 1342 2825 50  0000 C CNN
F 1 "Conn_01x03_Female" H 1342 2916 50  0000 C CNN
F 2 "Connector_PinSocket_2.54mm:PinSocket_1x03_P2.54mm_Vertical" H 1450 3150 50  0001 C CNN
F 3 "~" H 1450 3150 50  0001 C CNN
	1    1450 3150
	-1   0    0    1   
$EndComp
Wire Wire Line
	2000 2200 1550 2200
Wire Wire Line
	2000 2100 2000 2200
Wire Wire Line
	1550 2200 1550 2250
Connection ~ 1550 2200
Wire Wire Line
	1050 2200 1550 2200
Wire Wire Line
	1050 2100 1050 2200
Wire Wire Line
	2000 1800 2250 1800
Connection ~ 2000 1800
$Comp
L Device:C C2
U 1 1 5E60A3D4
P 2000 1950
F 0 "C2" H 1885 1904 50  0000 R CNN
F 1 "10uF" H 1885 1995 50  0000 R CNN
F 2 "Capacitor_SMD:C_0805_2012Metric_Pad1.15x1.40mm_HandSolder" H 2038 1800 50  0001 C CNN
F 3 "~" H 2000 1950 50  0001 C CNN
	1    2000 1950
	-1   0    0    1   
$EndComp
Wire Wire Line
	1850 1800 2000 1800
Text GLabel 2250 1800 2    50   Input ~ 0
V_3.3
Wire Wire Line
	1550 2100 1550 2200
$Comp
L power:GND #PWR0102
U 1 1 5E606A82
P 1550 2250
F 0 "#PWR0102" H 1550 2000 50  0001 C CNN
F 1 "GND" H 1555 2077 50  0000 C CNN
F 2 "" H 1550 2250 50  0001 C CNN
F 3 "" H 1550 2250 50  0001 C CNN
	1    1550 2250
	1    0    0    -1  
$EndComp
$Comp
L power:+5V #PWR0101
U 1 1 5E605B49
P 850 1800
F 0 "#PWR0101" H 850 1650 50  0001 C CNN
F 1 "+5V" H 865 1973 50  0000 C CNN
F 2 "" H 850 1800 50  0001 C CNN
F 3 "" H 850 1800 50  0001 C CNN
	1    850  1800
	-1   0    0    1   
$EndComp
$Comp
L Regulator_Linear:AMS1117-3.3 U2
U 1 1 5E5FFF09
P 1550 1800
F 0 "U2" H 1550 2042 50  0000 C CNN
F 1 "AMS1117-3.3" H 1550 1951 50  0000 C CNN
F 2 "Package_TO_SOT_SMD:SOT-223-3_TabPin2" H 1550 2000 50  0001 C CNN
F 3 "http://www.advanced-monolithic.com/pdf/ds1117.pdf" H 1650 1550 50  0001 C CNN
	1    1550 1800
	1    0    0    -1  
$EndComp
$Comp
L power:GND #PWR0107
U 1 1 5E625919
P 1800 1150
F 0 "#PWR0107" H 1800 900 50  0001 C CNN
F 1 "GND" V 1805 1022 50  0000 R CNN
F 2 "" H 1800 1150 50  0001 C CNN
F 3 "" H 1800 1150 50  0001 C CNN
	1    1800 1150
	1    0    0    -1  
$EndComp
$Comp
L Connector:Conn_01x02_Female J_POWER1
U 1 1 5E6107BD
P 1300 1100
F 0 "J_POWER1" H 1192 775 50  0000 C CNN
F 1 "Conn_01x02_Female" H 1192 866 50  0000 C CNN
F 2 "ScrewTerminalLibrary:TerminalBlock_Phoenix_PT-1,5-2-3.5-H_1x02_P3.50mm_Horizontal" H 1300 1100 50  0001 C CNN
F 3 "~" H 1300 1100 50  0001 C CNN
	1    1300 1100
	-1   0    0    1   
$EndComp
$Comp
L power:+5V #PWR0105
U 1 1 5E615D2D
P 1700 1000
F 0 "#PWR0105" H 1700 850 50  0001 C CNN
F 1 "+5V" H 1715 1173 50  0000 C CNN
F 2 "" H 1700 1000 50  0001 C CNN
F 3 "" H 1700 1000 50  0001 C CNN
	1    1700 1000
	0    1    1    0   
$EndComp
Wire Wire Line
	1500 1000 1700 1000
Wire Wire Line
	1800 1100 1800 1150
Wire Wire Line
	1500 1100 1800 1100
Text GLabel 1900 3050 2    50   Input ~ 0
TX
Text GLabel 1900 3150 2    50   Input ~ 0
RX
$Comp
L power:GND #PWR0108
U 1 1 5E619E8E
P 1900 3250
F 0 "#PWR0108" H 1900 3000 50  0001 C CNN
F 1 "GND" H 1905 3077 50  0000 C CNN
F 2 "" H 1900 3250 50  0001 C CNN
F 3 "" H 1900 3250 50  0001 C CNN
	1    1900 3250
	0    -1   -1   0   
$EndComp
Wire Wire Line
	1650 3250 1900 3250
Wire Wire Line
	1900 3150 1650 3150
Wire Wire Line
	1650 3050 1900 3050
$Comp
L power:GND #PWR0109
U 1 1 5E61D765
P 1900 4000
F 0 "#PWR0109" H 1900 3750 50  0001 C CNN
F 1 "GND" H 1905 3827 50  0000 C CNN
F 2 "" H 1900 4000 50  0001 C CNN
F 3 "" H 1900 4000 50  0001 C CNN
	1    1900 4000
	1    0    0    -1  
$EndComp
Wire Wire Line
	1650 4000 1900 4000
Wire Wire Line
	1900 3900 1650 3900
Wire Wire Line
	1650 3800 1900 3800
Text GLabel 1900 3900 2    50   Input ~ 0
SDA
Text GLabel 1900 3800 2    50   Input ~ 0
SCL
NoConn ~ 4250 3100
NoConn ~ 4250 3200
NoConn ~ 4250 3300
NoConn ~ 4250 3400
NoConn ~ 4250 3500
NoConn ~ 4250 3600
Wire Wire Line
	4850 3950 4850 3800
NoConn ~ 4250 2900
Text GLabel 5450 3100 2    50   Input ~ 0
GPIO12
Text GLabel 5450 3200 2    50   Input ~ 0
GPIO13
Text GLabel 5450 3300 2    50   Input ~ 0
GPIO14
Text GLabel 5450 3500 2    50   Input ~ 0
GPIO16
$Comp
L Device:CP C1
U 1 1 5E629D50
P 1050 1950
F 0 "C1" H 1150 1900 50  0000 L CNN
F 1 "100uF" H 1100 1800 50  0000 L CNN
F 2 "Capacitor_THT:C_Radial_D4.0mm_H7.0mm_P1.50mm" H 1088 1800 50  0001 C CNN
F 3 "~" H 1050 1950 50  0001 C CNN
	1    1050 1950
	1    0    0    -1  
$EndComp
Wire Wire Line
	850  1800 1050 1800
Connection ~ 1050 1800
Wire Wire Line
	1050 1800 1250 1800
$Comp
L Device:R R1
U 1 1 5E60CCC8
P 3900 2500
F 0 "R1" V 3800 2450 50  0000 L CNN
F 1 "10K" V 4000 2400 50  0000 L CNN
F 2 "Resistor_SMD:R_0805_2012Metric" V 3830 2500 50  0001 C CNN
F 3 "~" H 3900 2500 50  0001 C CNN
	1    3900 2500
	0    1    1    0   
$EndComp
Wire Wire Line
	4250 2700 4100 2700
Wire Wire Line
	4100 2700 4100 2800
Wire Wire Line
	4100 2800 4050 2800
Wire Wire Line
	3750 2800 3600 2800
Wire Wire Line
	6250 2500 6400 2500
Wire Wire Line
	5750 2400 5750 2500
Wire Wire Line
	5450 2500 5750 2500
Connection ~ 5750 2500
Wire Wire Line
	5750 2500 5950 2500
$Comp
L Device:R R6
U 1 1 5E6351B2
P 5750 2250
F 0 "R6" V 5850 2200 50  0000 L CNN
F 1 "470" V 5650 2200 50  0000 L CNN
F 2 "Resistor_SMD:R_0805_2012Metric" V 5680 2250 50  0001 C CNN
F 3 "~" H 5750 2250 50  0001 C CNN
	1    5750 2250
	1    0    0    -1  
$EndComp
$Comp
L Device:R R7
U 1 1 5E6373DD
P 6100 2800
F 0 "R7" V 6200 2750 50  0000 L CNN
F 1 "10K" V 6000 2750 50  0000 L CNN
F 2 "Resistor_SMD:R_0805_2012Metric" V 6030 2800 50  0001 C CNN
F 3 "~" H 6100 2800 50  0001 C CNN
	1    6100 2800
	0    -1   -1   0   
$EndComp
Wire Wire Line
	5950 2700 5950 2800
Wire Wire Line
	5450 2700 5950 2700
Wire Wire Line
	6250 2800 6400 2800
Wire Wire Line
	6400 2800 6400 2500
Connection ~ 6400 2500
Wire Wire Line
	6400 2500 6500 2500
Text GLabel 5450 3400 2    50   Input ~ 0
GPIO15
$Comp
L Transistor_FET:IRLZ44N Q1
U 1 1 5E63D0B2
P 1800 4900
F 0 "Q1" V 2142 4900 50  0000 C CNN
F 1 "IRLZ44N" V 2051 4900 50  0000 C CNN
F 2 "Package_TO_SOT_THT:TO-220-3_Vertical" H 2050 4825 50  0001 L CIN
F 3 "http://www.irf.com/product-info/datasheets/data/irlz44n.pdf" H 1800 4900 50  0001 L CNN
	1    1800 4900
	0    -1   -1   0   
$EndComp
Text GLabel 1800 5400 3    50   Input ~ 0
GPIO15
$Comp
L Device:R R4
U 1 1 5E64124B
P 2050 5300
F 0 "R4" V 2150 5250 50  0000 L CNN
F 1 "10K" V 1950 5250 50  0000 L CNN
F 2 "Resistor_SMD:R_0805_2012Metric" V 1980 5300 50  0001 C CNN
F 3 "~" H 2050 5300 50  0001 C CNN
	1    2050 5300
	0    -1   -1   0   
$EndComp
Wire Wire Line
	1800 5100 1800 5300
Wire Wire Line
	1900 5300 1800 5300
Wire Wire Line
	1800 5300 1800 5400
Connection ~ 1800 5300
$Comp
L power:GND #PWR0110
U 1 1 5E6442C3
P 2250 5450
F 0 "#PWR0110" H 2250 5200 50  0001 C CNN
F 1 "GND" H 2255 5277 50  0000 C CNN
F 2 "" H 2250 5450 50  0001 C CNN
F 3 "" H 2250 5450 50  0001 C CNN
	1    2250 5450
	1    0    0    -1  
$EndComp
Wire Wire Line
	2200 5300 2250 5300
Wire Wire Line
	2250 5300 2250 5450
Wire Wire Line
	2000 4800 2250 4800
Wire Wire Line
	2250 4800 2250 5300
Connection ~ 2250 5300
Text GLabel 1500 4800 0    50   Input ~ 0
LED_GND
Wire Wire Line
	1500 4800 1600 4800
Text GLabel 9300 1600 0    50   Input ~ 0
V_3.3
Text GLabel 9300 1400 0    50   Input ~ 0
LED_GND
Text GLabel 9300 1700 0    50   Input ~ 0
GPIO12
Text GLabel 9300 2600 0    50   Input ~ 0
GPIO13
Text GLabel 9300 3500 0    50   Input ~ 0
GPIO14
Text GLabel 9300 4400 0    50   Input ~ 0
GPIO16
$Comp
L Device:R R9
U 1 1 5E64BB7F
P 9400 1850
F 0 "R9" V 9500 1800 50  0000 L CNN
F 1 "1K" V 9300 1800 50  0000 L CNN
F 2 "Resistor_THT:R_Axial_DIN0207_L6.3mm_D2.5mm_P7.62mm_Horizontal" V 9330 1850 50  0001 C CNN
F 3 "~" H 9400 1850 50  0001 C CNN
	1    9400 1850
	1    0    0    -1  
$EndComp
Wire Wire Line
	9450 1400 9300 1400
Wire Wire Line
	9450 1500 9300 1500
Wire Wire Line
	9450 1600 9300 1600
Wire Wire Line
	9450 1700 9400 1700
Connection ~ 9400 1700
Wire Wire Line
	9400 1700 9300 1700
$Comp
L power:GND #PWR0112
U 1 1 5E6545BB
P 9250 2000
F 0 "#PWR0112" H 9250 1750 50  0001 C CNN
F 1 "GND" H 9255 1827 50  0000 C CNN
F 2 "" H 9250 2000 50  0001 C CNN
F 3 "" H 9250 2000 50  0001 C CNN
	1    9250 2000
	0    1    1    0   
$EndComp
Wire Wire Line
	9400 2000 9250 2000
Text GLabel 9300 2500 0    50   Input ~ 0
V_3.3
Text GLabel 9300 2300 0    50   Input ~ 0
LED_GND
$Comp
L Device:R R10
U 1 1 5E65B194
P 9400 2750
F 0 "R10" V 9500 2700 50  0000 L CNN
F 1 "1K" V 9300 2700 50  0000 L CNN
F 2 "Resistor_THT:R_Axial_DIN0207_L6.3mm_D2.5mm_P7.62mm_Horizontal" V 9330 2750 50  0001 C CNN
F 3 "~" H 9400 2750 50  0001 C CNN
	1    9400 2750
	1    0    0    -1  
$EndComp
$Comp
L power:+5V #PWR0113
U 1 1 5E65B19E
P 9300 2400
F 0 "#PWR0113" H 9300 2250 50  0001 C CNN
F 1 "+5V" V 9300 2600 50  0000 C CNN
F 2 "" H 9300 2400 50  0001 C CNN
F 3 "" H 9300 2400 50  0001 C CNN
	1    9300 2400
	0    -1   -1   0   
$EndComp
Wire Wire Line
	9450 2300 9300 2300
Wire Wire Line
	9450 2400 9300 2400
Wire Wire Line
	9450 2500 9300 2500
Wire Wire Line
	9450 2600 9400 2600
Connection ~ 9400 2600
Wire Wire Line
	9400 2600 9300 2600
$Comp
L power:GND #PWR0114
U 1 1 5E65B1AE
P 9250 2900
F 0 "#PWR0114" H 9250 2650 50  0001 C CNN
F 1 "GND" H 9255 2727 50  0000 C CNN
F 2 "" H 9250 2900 50  0001 C CNN
F 3 "" H 9250 2900 50  0001 C CNN
	1    9250 2900
	0    1    1    0   
$EndComp
Wire Wire Line
	9400 2900 9250 2900
Text GLabel 9300 3400 0    50   Input ~ 0
V_3.3
Text GLabel 9300 3200 0    50   Input ~ 0
LED_GND
$Comp
L Device:R R11
U 1 1 5E65F6E0
P 9400 3650
F 0 "R11" V 9500 3600 50  0000 L CNN
F 1 "1K" V 9300 3600 50  0000 L CNN
F 2 "Resistor_THT:R_Axial_DIN0207_L6.3mm_D2.5mm_P7.62mm_Horizontal" V 9330 3650 50  0001 C CNN
F 3 "~" H 9400 3650 50  0001 C CNN
	1    9400 3650
	1    0    0    -1  
$EndComp
$Comp
L power:+5V #PWR0115
U 1 1 5E65F6EA
P 9300 3300
F 0 "#PWR0115" H 9300 3150 50  0001 C CNN
F 1 "+5V" V 9300 3500 50  0000 C CNN
F 2 "" H 9300 3300 50  0001 C CNN
F 3 "" H 9300 3300 50  0001 C CNN
	1    9300 3300
	0    -1   -1   0   
$EndComp
Wire Wire Line
	9450 3200 9300 3200
Wire Wire Line
	9450 3300 9300 3300
Wire Wire Line
	9450 3400 9300 3400
Wire Wire Line
	9450 3500 9400 3500
Connection ~ 9400 3500
Wire Wire Line
	9400 3500 9300 3500
$Comp
L power:GND #PWR0116
U 1 1 5E65F6FA
P 9250 3800
F 0 "#PWR0116" H 9250 3550 50  0001 C CNN
F 1 "GND" H 9255 3627 50  0000 C CNN
F 2 "" H 9250 3800 50  0001 C CNN
F 3 "" H 9250 3800 50  0001 C CNN
	1    9250 3800
	0    1    1    0   
$EndComp
Wire Wire Line
	9400 3800 9250 3800
Text GLabel 9300 4300 0    50   Input ~ 0
V_3.3
Text GLabel 9300 4100 0    50   Input ~ 0
LED_GND
$Comp
L Device:R R12
U 1 1 5E6643F6
P 9400 4550
F 0 "R12" V 9500 4500 50  0000 L CNN
F 1 "1K" V 9300 4500 50  0000 L CNN
F 2 "Resistor_THT:R_Axial_DIN0207_L6.3mm_D2.5mm_P7.62mm_Horizontal" V 9330 4550 50  0001 C CNN
F 3 "~" H 9400 4550 50  0001 C CNN
	1    9400 4550
	1    0    0    -1  
$EndComp
$Comp
L power:+5V #PWR0117
U 1 1 5E664400
P 9300 4200
F 0 "#PWR0117" H 9300 4050 50  0001 C CNN
F 1 "+5V" V 9300 4400 50  0000 C CNN
F 2 "" H 9300 4200 50  0001 C CNN
F 3 "" H 9300 4200 50  0001 C CNN
	1    9300 4200
	0    -1   -1   0   
$EndComp
Wire Wire Line
	9450 4100 9300 4100
Wire Wire Line
	9450 4200 9300 4200
Wire Wire Line
	9450 4300 9300 4300
Wire Wire Line
	9450 4400 9400 4400
Connection ~ 9400 4400
Wire Wire Line
	9400 4400 9300 4400
$Comp
L power:GND #PWR0118
U 1 1 5E664410
P 9250 4700
F 0 "#PWR0118" H 9250 4450 50  0001 C CNN
F 1 "GND" H 9255 4527 50  0000 C CNN
F 2 "" H 9250 4700 50  0001 C CNN
F 3 "" H 9250 4700 50  0001 C CNN
	1    9250 4700
	0    1    1    0   
$EndComp
Wire Wire Line
	9400 4700 9250 4700
Text GLabel 6950 5050 0    50   Input ~ 0
SDA
Text GLabel 6950 4950 0    50   Input ~ 0
V_3.3
Text GLabel 6950 4750 0    50   Input ~ 0
LED_GND
$Comp
L Device:R R8
U 1 1 5E669518
P 7050 5600
F 0 "R8" V 7150 5550 50  0000 L CNN
F 1 "1K" V 6950 5550 50  0000 L CNN
F 2 "Resistor_SMD:R_0805_2012Metric" V 6980 5600 50  0001 C CNN
F 3 "~" H 7050 5600 50  0001 C CNN
	1    7050 5600
	1    0    0    -1  
$EndComp
$Comp
L power:+5V #PWR0119
U 1 1 5E669522
P 6950 4850
F 0 "#PWR0119" H 6950 4700 50  0001 C CNN
F 1 "+5V" V 6950 5050 50  0000 C CNN
F 2 "" H 6950 4850 50  0001 C CNN
F 3 "" H 6950 4850 50  0001 C CNN
	1    6950 4850
	0    -1   -1   0   
$EndComp
Wire Wire Line
	7100 4750 6950 4750
Wire Wire Line
	7100 4850 6950 4850
Wire Wire Line
	7100 4950 6950 4950
$Comp
L power:GND #PWR0120
U 1 1 5E669532
P 6900 5750
F 0 "#PWR0120" H 6900 5500 50  0001 C CNN
F 1 "GND" H 6905 5577 50  0000 C CNN
F 2 "" H 6900 5750 50  0001 C CNN
F 3 "" H 6900 5750 50  0001 C CNN
	1    6900 5750
	0    1    1    0   
$EndComp
Wire Wire Line
	7050 5750 6900 5750
Wire Wire Line
	6950 5050 7050 5050
$Comp
L Jumper:Jumper_2_Open JP2
U 1 1 5E6729EA
P 7050 5250
F 0 "JP2" V 7004 5348 50  0000 L CNN
F 1 "Jumper_2_Open" V 7095 5348 50  0000 L CNN
F 2 "Connector_PinHeader_2.54mm:PinHeader_1x02_P2.54mm_Vertical" H 7050 5250 50  0001 C CNN
F 3 "~" H 7050 5250 50  0001 C CNN
	1    7050 5250
	0    1    1    0   
$EndComp
Connection ~ 7050 5050
Wire Wire Line
	7050 5050 7100 5050
Text GLabel 5200 5000 0    50   Input ~ 0
SCL
Text GLabel 5200 4900 0    50   Input ~ 0
V_3.3
Text GLabel 5200 4700 0    50   Input ~ 0
LED_GND
$Comp
L Device:R R5
U 1 1 5E679B13
P 5300 5550
F 0 "R5" V 5400 5500 50  0000 L CNN
F 1 "1K" V 5200 5500 50  0000 L CNN
F 2 "Resistor_SMD:R_0805_2012Metric" V 5230 5550 50  0001 C CNN
F 3 "~" H 5300 5550 50  0001 C CNN
	1    5300 5550
	1    0    0    -1  
$EndComp
$Comp
L power:+5V #PWR0121
U 1 1 5E679B1D
P 5200 4800
F 0 "#PWR0121" H 5200 4650 50  0001 C CNN
F 1 "+5V" V 5200 5000 50  0000 C CNN
F 2 "" H 5200 4800 50  0001 C CNN
F 3 "" H 5200 4800 50  0001 C CNN
	1    5200 4800
	0    -1   -1   0   
$EndComp
Wire Wire Line
	5350 4700 5200 4700
Wire Wire Line
	5350 4800 5200 4800
Wire Wire Line
	5350 4900 5200 4900
$Comp
L power:GND #PWR0122
U 1 1 5E679B2A
P 5150 5700
F 0 "#PWR0122" H 5150 5450 50  0001 C CNN
F 1 "GND" H 5155 5527 50  0000 C CNN
F 2 "" H 5150 5700 50  0001 C CNN
F 3 "" H 5150 5700 50  0001 C CNN
	1    5150 5700
	0    1    1    0   
$EndComp
Wire Wire Line
	5300 5700 5150 5700
Wire Wire Line
	5200 5000 5300 5000
Connection ~ 5300 5000
Wire Wire Line
	5300 5000 5350 5000
$Comp
L Connector:Conn_01x03_Female J_I2C1
U 1 1 5E61D759
P 1450 3900
F 0 "J_I2C1" H 1342 3575 50  0000 C CNN
F 1 "Conn_01x03_Female" H 1342 3666 50  0000 C CNN
F 2 "Connector_JST:JST_XH_B3B-XH-A_1x03_P2.50mm_Vertical" H 1450 3900 50  0001 C CNN
F 3 "~" H 1450 3900 50  0001 C CNN
	1    1450 3900
	-1   0    0    1   
$EndComp
$Comp
L Jumper:Jumper_2_Open JP1
U 1 1 5E679B36
P 5300 5200
F 0 "JP1" V 5254 5298 50  0000 L CNN
F 1 "Jumper_2_Open" V 5345 5298 50  0000 L CNN
F 2 "Connector_PinHeader_2.54mm:PinHeader_1x02_P2.54mm_Vertical" H 5300 5200 50  0001 C CNN
F 3 "~" H 5300 5200 50  0001 C CNN
	1    5300 5200
	0    1    1    0   
$EndComp
$Comp
L Connector:Conn_01x04_Female J_G4
U 1 1 5E66950C
P 7300 4850
F 0 "J_G4" H 7328 4826 50  0000 L CNN
F 1 "Conn_01x04_Female" H 7328 4735 50  0000 L CNN
F 2 "Connector_JST:JST_XH_B4B-XH-A_1x04_P2.50mm_Vertical" H 7300 4850 50  0001 C CNN
F 3 "~" H 7300 4850 50  0001 C CNN
	1    7300 4850
	1    0    0    -1  
$EndComp
$Comp
L Connector:Conn_01x04_Female J_G16
U 1 1 5E6643E9
P 9650 4200
F 0 "J_G16" H 9678 4176 50  0000 L CNN
F 1 "Conn_01x04_Female" H 9678 4085 50  0000 L CNN
F 2 "Connector_JST:JST_XH_B4B-XH-A_1x04_P2.50mm_Vertical" H 9650 4200 50  0001 C CNN
F 3 "~" H 9650 4200 50  0001 C CNN
	1    9650 4200
	1    0    0    -1  
$EndComp
$Comp
L Connector:Conn_01x04_Female J_G14
U 1 1 5E65F6D3
P 9650 3300
F 0 "J_G14" H 9678 3276 50  0000 L CNN
F 1 "Conn_01x04_Female" H 9678 3185 50  0000 L CNN
F 2 "Connector_JST:JST_XH_B4B-XH-A_1x04_P2.50mm_Vertical" H 9650 3300 50  0001 C CNN
F 3 "~" H 9650 3300 50  0001 C CNN
	1    9650 3300
	1    0    0    -1  
$EndComp
$Comp
L Connector:Conn_01x04_Female J_G13
U 1 1 5E65B187
P 9650 2400
F 0 "J_G13" H 9678 2376 50  0000 L CNN
F 1 "Conn_01x04_Female" H 9678 2285 50  0000 L CNN
F 2 "Connector_JST:JST_XH_B4B-XH-A_1x04_P2.50mm_Vertical" H 9650 2400 50  0001 C CNN
F 3 "~" H 9650 2400 50  0001 C CNN
	1    9650 2400
	1    0    0    -1  
$EndComp
$Comp
L Connector:Conn_01x04_Female J_G12
U 1 1 5E647079
P 9650 1500
F 0 "J_G12" H 9678 1476 50  0000 L CNN
F 1 "Conn_01x04_Female" H 9678 1385 50  0000 L CNN
F 2 "Connector_JST:JST_XH_B4B-XH-A_1x04_P2.50mm_Vertical" H 9650 1500 50  0001 C CNN
F 3 "~" H 9650 1500 50  0001 C CNN
	1    9650 1500
	1    0    0    -1  
$EndComp
$Comp
L Switch:SW_Push FLASH1
U 1 1 5E6113EC
P 5750 1900
F 0 "FLASH1" V 5796 1852 50  0000 R CNN
F 1 "SW_Push" V 5705 1852 50  0000 R CNN
F 2 "Button_Switch_THT:SW_PUSH_6mm_H5mm" H 5750 2100 50  0001 C CNN
F 3 "~" H 5750 2100 50  0001 C CNN
	1    5750 1900
	0    -1   -1   0   
$EndComp
$Comp
L Switch:SW_Push RST1
U 1 1 5E601948
P 4150 2300
F 0 "RST1" V 4196 2252 50  0000 R CNN
F 1 "SW_Push" V 4105 2252 50  0000 R CNN
F 2 "Button_Switch_THT:SW_PUSH_6mm_H5mm" H 4150 2500 50  0001 C CNN
F 3 "~" H 4150 2500 50  0001 C CNN
	1    4150 2300
	0    -1   -1   0   
$EndComp
$Comp
L Connector:Conn_01x04_Female J_G5
U 1 1 5E679B07
P 5550 4800
F 0 "J_G5" H 5578 4776 50  0000 L CNN
F 1 "Conn_01x04_Female" H 5578 4685 50  0000 L CNN
F 2 "Connector_JST:JST_XH_B4B-XH-A_1x04_P2.50mm_Vertical" H 5550 4800 50  0001 C CNN
F 3 "~" H 5550 4800 50  0001 C CNN
	1    5550 4800
	1    0    0    -1  
$EndComp
$Comp
L power:+5V #PWR0111
U 1 1 5E64F243
P 9300 1500
F 0 "#PWR0111" H 9300 1350 50  0001 C CNN
F 1 "+5V" V 9300 1700 50  0000 C CNN
F 2 "" H 9300 1500 50  0001 C CNN
F 3 "" H 9300 1500 50  0001 C CNN
	1    9300 1500
	0    -1   -1   0   
$EndComp
$EndSCHEMATC
